{
    "data": {
        "success": true,
        "code": 200,
        "message": "Success",
        "data": {
            "current_page": 1,
            "data": [
                {
                    "type": "article",
                    "content": {
                        "id": 1,
                        "title": "LANGSUNG ADA JUDUL",
                        "title_align": "center",
                        "heading": "Disini Juga ada Heading",
                        "description_1": "Ada deskripsi pertama juga",
                        "description_2": "ada juga deskripsi kedua",
                        "image": "https://via.placeholder.com/500",
                        "image_align": "right",
                        "background_color": "#F6F2EE",
                        "text_color": "#891E20",
                        "font_type": "Times New Roman"
                    }
                },
                {
                    "type": "article",
                    "content": {
                        "id": 2,
                        "title": null,
                        "title_align": "left",
                        "heading": "Cuman ada headingnya doang",
                        "description_1": null,
                        "description_2": null,
                        "image": null,
                        "image_align": "left",
                        "background_color": "#F6F2EE",
                        "text_color": "#891E20",
                        "font_type": null
                    }
                },
                {
                    "type": "article",
                    "content": {
                        "id": 3,
                        "title": null,
                        "title_align": "left",
                        "heading": null,
                        "description_1": "Cuman ada deskripsi 1 nya doang",
                        "description_2": null,
                        "image": null,
                        "image_align": "left",
                        "background_color": "#851716",
                        "text_color": "#fff",
                        "font_type": null
                    }
                },
                {
                    "type": "article",
                    "content": {
                        "id": 4,
                        "title": null,
                        "title_align": "left",
                        "heading": null,
                        "description_1": "Cuman ada deskripsi 1 nya doang tapi imgnya right",
                        "description_2": null,
                        "image": null,
                        "image_align": "right",
                        "background_color": "#851716",
                        "text_color": "#fff",
                        "font_type": "nunito"
                    }
                },
                {
                    "type": "article",
                    "content": {
                        "id": 5,
                        "title": null,
                        "title_align": "left",
                        "heading": null,
                        "description_1": null,
                        "description_2": "cuman ada deskripsi 2 nya doang",
                        "image": null,
                        "image_align": "left",
                        "background_color": "#851716",
                        "text_color": "#fff",
                        "font_type": null
                    }
                },
                {
                    "type": "article",
                    "content": {
                        "id": 6,
                        "title": "Cuman ada judul nya doang",
                        "title_align": "right",
                        "heading": null,
                        "description_1": null,
                        "description_2": null,
                        "image": null,
                        "image_align": "left",
                        "background_color": "#851716",
                        "text_color": "#fff",
                        "font_type": null
                    }
                },
                {
                    "type": "article",
                    "content": {
                        "id": 7,
                        "title": null,
                        "title_align": "right",
                        "heading": null,
                        "description_1": null,
                        "description_2": null,
                        "image": "https://via.placeholder.com/500",
                        "image_align": "right",
                        "background_color": "#851716",
                        "text_color": "#fff",
                        "font_type": null
                    }
                },
                {
                    "type": "article",
                    "content": {
                        "id": 8,
                        "title": null,
                        "title_align": "right",
                        "heading": null,
                        "description_1": null,
                        "description_2": null,
                        "image": "https://via.placeholder.com/500",
                        "image_align": "left",
                        "background_color": "#851716",
                        "text_color": "#fff",
                        "font_type": null
                    }
                }
            ],
            "first_page_url": "http://ecommerce.sandbox-services.jwalbli.com/api/v1/shop?page=1",
            "from": 1,
            "last_page": 1,
            "last_page_url": "http://ecommerce.sandbox-services.jwalbli.com/api/v1/shop?page=7",
            "next_page_url": "http://ecommerce.sandbox-services.jwalbli.com/api/v1/shop?page=2",
            "path": "http://ecommerce.sandbox-services.jwalbli.com/api/v1/shop",
            "per_page": "20",
            "prev_page_url": null,
            "to": 20,
            "total": 135
        }
    }
}
